ISO-10303-21;
HEADER;
/* Generated by software containing ST-Developer
 * from STEP Tools, Inc. (www.steptools.com) 
 */

FILE_DESCRIPTION(
/* description */ (''),
/* implementation_level */ '2;1');

FILE_NAME(
/* name */ 'Pin Rear.step',
/* time_stamp */ '2023-01-24T13:08:20-07:00',
/* author */ (''),
/* organization */ (''),
/* preprocessor_version */ 'ST-DEVELOPER v19.2',
/* originating_system */ 'Autodesk Translation Framework v11.17.0.187',

/* authorisation */ '');

FILE_SCHEMA (('AUTOMOTIVE_DESIGN { 1 0 10303 214 3 1 1 }'));
ENDSEC;

DATA;
#10=MECHANICAL_DESIGN_GEOMETRIC_PRESENTATION_REPRESENTATION('',(#13),#480);
#11=SHAPE_REPRESENTATION_RELATIONSHIP('SRR','None',#487,#12);
#12=ADVANCED_BREP_SHAPE_REPRESENTATION('',(#14),#479);
#13=STYLED_ITEM('',(#497),#14);
#14=MANIFOLD_SOLID_BREP('Body1',#263);
#15=ELLIPSE('',#291,6.18718433538229,4.375);
#16=ELLIPSE('',#292,6.18718433538229,4.375);
#17=ELLIPSE('',#298,6.18718433538229,4.375);
#18=ELLIPSE('',#299,6.18718433538229,4.375);
#19=CONICAL_SURFACE('',#286,3.4375,0.698131700797732);
#20=CONICAL_SURFACE('',#289,3.4375,0.698131700797732);
#21=CONICAL_SURFACE('',#306,3.625,0.785398163397448);
#22=CYLINDRICAL_SURFACE('',#282,2.5);
#23=CYLINDRICAL_SURFACE('',#308,4.375);
#24=FACE_BOUND('',#57,.T.);
#25=CIRCLE('',#280,2.875);
#26=CIRCLE('',#281,2.5);
#27=CIRCLE('',#283,2.5);
#28=CIRCLE('',#284,2.5);
#29=CIRCLE('',#285,2.5);
#30=CIRCLE('',#287,2.5);
#31=CIRCLE('',#288,4.37500000000004);
#32=CIRCLE('',#294,4.375);
#33=CIRCLE('',#295,4.375);
#34=CIRCLE('',#296,4.375);
#35=CIRCLE('',#303,4.375);
#36=CIRCLE('',#305,4.375);
#37=CIRCLE('',#307,4.375);
#38=FACE_OUTER_BOUND('',#54,.T.);
#39=FACE_OUTER_BOUND('',#55,.T.);
#40=FACE_OUTER_BOUND('',#56,.T.);
#41=FACE_OUTER_BOUND('',#58,.T.);
#42=FACE_OUTER_BOUND('',#59,.T.);
#43=FACE_OUTER_BOUND('',#60,.T.);
#44=FACE_OUTER_BOUND('',#61,.T.);
#45=FACE_OUTER_BOUND('',#62,.T.);
#46=FACE_OUTER_BOUND('',#63,.T.);
#47=FACE_OUTER_BOUND('',#64,.T.);
#48=FACE_OUTER_BOUND('',#65,.T.);
#49=FACE_OUTER_BOUND('',#66,.T.);
#50=FACE_OUTER_BOUND('',#67,.T.);
#51=FACE_OUTER_BOUND('',#68,.T.);
#52=FACE_OUTER_BOUND('',#69,.T.);
#53=FACE_OUTER_BOUND('',#70,.T.);
#54=EDGE_LOOP('',(#164,#165,#166));
#55=EDGE_LOOP('',(#167,#168,#169));
#56=EDGE_LOOP('',(#170));
#57=EDGE_LOOP('',(#171));
#58=EDGE_LOOP('',(#172,#173,#174,#175,#176,#177,#178,#179));
#59=EDGE_LOOP('',(#180,#181,#182,#183));
#60=EDGE_LOOP('',(#184,#185,#186,#187));
#61=EDGE_LOOP('',(#188,#189,#190,#191));
#62=EDGE_LOOP('',(#192,#193,#194,#195,#196));
#63=EDGE_LOOP('',(#197,#198,#199,#200));
#64=EDGE_LOOP('',(#201,#202,#203,#204));
#65=EDGE_LOOP('',(#205,#206,#207,#208));
#66=EDGE_LOOP('',(#209,#210));
#67=EDGE_LOOP('',(#211,#212));
#68=EDGE_LOOP('',(#213,#214,#215,#216));
#69=EDGE_LOOP('',(#217,#218,#219,#220,#221,#222,#223,#224,#225,#226,#227,
#228,#229,#230,#231,#232));
#70=EDGE_LOOP('',(#233,#234,#235));
#71=LINE('',#404,#86);
#72=LINE('',#412,#87);
#73=LINE('',#425,#88);
#74=LINE('',#436,#89);
#75=LINE('',#439,#90);
#76=LINE('',#444,#91);
#77=LINE('',#453,#92);
#78=LINE('',#456,#93);
#79=LINE('',#458,#94);
#80=LINE('',#459,#95);
#81=LINE('',#462,#96);
#82=LINE('',#464,#97);
#83=LINE('',#465,#98);
#84=LINE('',#472,#99);
#85=LINE('',#475,#100);
#86=VECTOR('',#314,10.);
#87=VECTOR('',#317,10.);
#88=VECTOR('',#330,2.5);
#89=VECTOR('',#345,10.);
#90=VECTOR('',#348,10.);
#91=VECTOR('',#353,10.);
#92=VECTOR('',#364,10.);
#93=VECTOR('',#367,10.);
#94=VECTOR('',#368,10.);
#95=VECTOR('',#369,10.);
#96=VECTOR('',#372,10.);
#97=VECTOR('',#373,10.);
#98=VECTOR('',#374,10.);
#99=VECTOR('',#385,3.625);
#100=VECTOR('',#390,4.375);
#101=(
BOUNDED_CURVE()
B_SPLINE_CURVE(2,(#397,#398,#399),.UNSPECIFIED.,.F.,.F.)
B_SPLINE_CURVE_WITH_KNOTS((3,3),(0.,0.316127276884519),.UNSPECIFIED.)
CURVE()
GEOMETRIC_REPRESENTATION_ITEM()
RATIONAL_B_SPLINE_CURVE((1.,1.05739153473804,1.))
REPRESENTATION_ITEM('')
);
#102=(
BOUNDED_CURVE()
B_SPLINE_CURVE(2,(#401,#402,#403),.UNSPECIFIED.,.F.,.F.)
B_SPLINE_CURVE_WITH_KNOTS((3,3),(0.,0.316127276884519),.UNSPECIFIED.)
CURVE()
GEOMETRIC_REPRESENTATION_ITEM()
RATIONAL_B_SPLINE_CURVE((1.,1.05739153473804,1.))
REPRESENTATION_ITEM('')
);
#103=(
BOUNDED_CURVE()
B_SPLINE_CURVE(2,(#408,#409,#410),.UNSPECIFIED.,.F.,.F.)
B_SPLINE_CURVE_WITH_KNOTS((3,3),(0.,0.316127276884524),.UNSPECIFIED.)
CURVE()
GEOMETRIC_REPRESENTATION_ITEM()
RATIONAL_B_SPLINE_CURVE((1.,1.0573915347367,1.))
REPRESENTATION_ITEM('')
);
#104=(
BOUNDED_CURVE()
B_SPLINE_CURVE(2,(#413,#414,#415),.UNSPECIFIED.,.F.,.F.)
B_SPLINE_CURVE_WITH_KNOTS((3,3),(0.,0.316127276884524),.UNSPECIFIED.)
CURVE()
GEOMETRIC_REPRESENTATION_ITEM()
RATIONAL_B_SPLINE_CURVE((1.,1.0573915347367,1.))
REPRESENTATION_ITEM('')
);
#105=VERTEX_POINT('',#395);
#106=VERTEX_POINT('',#396);
#107=VERTEX_POINT('',#400);
#108=VERTEX_POINT('',#406);
#109=VERTEX_POINT('',#407);
#110=VERTEX_POINT('',#411);
#111=VERTEX_POINT('',#417);
#112=VERTEX_POINT('',#419);
#113=VERTEX_POINT('',#423);
#114=VERTEX_POINT('',#432);
#115=VERTEX_POINT('',#433);
#116=VERTEX_POINT('',#435);
#117=VERTEX_POINT('',#437);
#118=VERTEX_POINT('',#441);
#119=VERTEX_POINT('',#443);
#120=VERTEX_POINT('',#445);
#121=VERTEX_POINT('',#449);
#122=VERTEX_POINT('',#451);
#123=VERTEX_POINT('',#455);
#124=VERTEX_POINT('',#457);
#125=VERTEX_POINT('',#461);
#126=VERTEX_POINT('',#463);
#127=VERTEX_POINT('',#471);
#128=EDGE_CURVE('',#105,#106,#101,.T.);
#129=EDGE_CURVE('',#107,#105,#102,.T.);
#130=EDGE_CURVE('',#106,#107,#71,.T.);
#131=EDGE_CURVE('',#108,#109,#103,.T.);
#132=EDGE_CURVE('',#110,#108,#72,.T.);
#133=EDGE_CURVE('',#109,#110,#104,.T.);
#134=EDGE_CURVE('',#111,#111,#25,.T.);
#135=EDGE_CURVE('',#112,#112,#26,.T.);
#136=EDGE_CURVE('',#107,#110,#27,.T.);
#137=EDGE_CURVE('',#113,#108,#28,.T.);
#138=EDGE_CURVE('',#113,#112,#73,.T.);
#139=EDGE_CURVE('',#106,#113,#29,.T.);
#140=EDGE_CURVE('',#108,#106,#30,.T.);
#141=EDGE_CURVE('',#109,#105,#31,.T.);
#142=EDGE_CURVE('',#114,#115,#15,.T.);
#143=EDGE_CURVE('',#115,#116,#74,.T.);
#144=EDGE_CURVE('',#116,#117,#16,.T.);
#145=EDGE_CURVE('',#117,#114,#75,.T.);
#146=EDGE_CURVE('',#118,#115,#32,.T.);
#147=EDGE_CURVE('',#119,#118,#76,.T.);
#148=EDGE_CURVE('',#120,#119,#33,.T.);
#149=EDGE_CURVE('',#116,#120,#34,.T.);
#150=EDGE_CURVE('',#121,#119,#17,.T.);
#151=EDGE_CURVE('',#118,#122,#18,.T.);
#152=EDGE_CURVE('',#122,#121,#77,.T.);
#153=EDGE_CURVE('',#123,#117,#78,.T.);
#154=EDGE_CURVE('',#124,#123,#79,.T.);
#155=EDGE_CURVE('',#114,#124,#80,.T.);
#156=EDGE_CURVE('',#125,#122,#81,.T.);
#157=EDGE_CURVE('',#126,#125,#82,.T.);
#158=EDGE_CURVE('',#121,#126,#83,.T.);
#159=EDGE_CURVE('',#125,#126,#35,.T.);
#160=EDGE_CURVE('',#123,#124,#36,.T.);
#161=EDGE_CURVE('',#111,#127,#84,.T.);
#162=EDGE_CURVE('',#127,#127,#37,.T.);
#163=EDGE_CURVE('',#127,#120,#85,.T.);
#164=ORIENTED_EDGE('',*,*,#128,.F.);
#165=ORIENTED_EDGE('',*,*,#129,.F.);
#166=ORIENTED_EDGE('',*,*,#130,.F.);
#167=ORIENTED_EDGE('',*,*,#131,.F.);
#168=ORIENTED_EDGE('',*,*,#132,.F.);
#169=ORIENTED_EDGE('',*,*,#133,.F.);
#170=ORIENTED_EDGE('',*,*,#134,.F.);
#171=ORIENTED_EDGE('',*,*,#135,.F.);
#172=ORIENTED_EDGE('',*,*,#136,.T.);
#173=ORIENTED_EDGE('',*,*,#132,.T.);
#174=ORIENTED_EDGE('',*,*,#137,.F.);
#175=ORIENTED_EDGE('',*,*,#138,.T.);
#176=ORIENTED_EDGE('',*,*,#135,.T.);
#177=ORIENTED_EDGE('',*,*,#138,.F.);
#178=ORIENTED_EDGE('',*,*,#139,.F.);
#179=ORIENTED_EDGE('',*,*,#130,.T.);
#180=ORIENTED_EDGE('',*,*,#128,.T.);
#181=ORIENTED_EDGE('',*,*,#140,.F.);
#182=ORIENTED_EDGE('',*,*,#131,.T.);
#183=ORIENTED_EDGE('',*,*,#141,.T.);
#184=ORIENTED_EDGE('',*,*,#129,.T.);
#185=ORIENTED_EDGE('',*,*,#141,.F.);
#186=ORIENTED_EDGE('',*,*,#133,.T.);
#187=ORIENTED_EDGE('',*,*,#136,.F.);
#188=ORIENTED_EDGE('',*,*,#142,.T.);
#189=ORIENTED_EDGE('',*,*,#143,.T.);
#190=ORIENTED_EDGE('',*,*,#144,.T.);
#191=ORIENTED_EDGE('',*,*,#145,.T.);
#192=ORIENTED_EDGE('',*,*,#143,.F.);
#193=ORIENTED_EDGE('',*,*,#146,.F.);
#194=ORIENTED_EDGE('',*,*,#147,.F.);
#195=ORIENTED_EDGE('',*,*,#148,.F.);
#196=ORIENTED_EDGE('',*,*,#149,.F.);
#197=ORIENTED_EDGE('',*,*,#150,.T.);
#198=ORIENTED_EDGE('',*,*,#147,.T.);
#199=ORIENTED_EDGE('',*,*,#151,.T.);
#200=ORIENTED_EDGE('',*,*,#152,.T.);
#201=ORIENTED_EDGE('',*,*,#145,.F.);
#202=ORIENTED_EDGE('',*,*,#153,.F.);
#203=ORIENTED_EDGE('',*,*,#154,.F.);
#204=ORIENTED_EDGE('',*,*,#155,.F.);
#205=ORIENTED_EDGE('',*,*,#152,.F.);
#206=ORIENTED_EDGE('',*,*,#156,.F.);
#207=ORIENTED_EDGE('',*,*,#157,.F.);
#208=ORIENTED_EDGE('',*,*,#158,.F.);
#209=ORIENTED_EDGE('',*,*,#157,.T.);
#210=ORIENTED_EDGE('',*,*,#159,.T.);
#211=ORIENTED_EDGE('',*,*,#154,.T.);
#212=ORIENTED_EDGE('',*,*,#160,.T.);
#213=ORIENTED_EDGE('',*,*,#134,.T.);
#214=ORIENTED_EDGE('',*,*,#161,.T.);
#215=ORIENTED_EDGE('',*,*,#162,.T.);
#216=ORIENTED_EDGE('',*,*,#161,.F.);
#217=ORIENTED_EDGE('',*,*,#162,.F.);
#218=ORIENTED_EDGE('',*,*,#163,.T.);
#219=ORIENTED_EDGE('',*,*,#148,.T.);
#220=ORIENTED_EDGE('',*,*,#150,.F.);
#221=ORIENTED_EDGE('',*,*,#158,.T.);
#222=ORIENTED_EDGE('',*,*,#159,.F.);
#223=ORIENTED_EDGE('',*,*,#156,.T.);
#224=ORIENTED_EDGE('',*,*,#151,.F.);
#225=ORIENTED_EDGE('',*,*,#146,.T.);
#226=ORIENTED_EDGE('',*,*,#142,.F.);
#227=ORIENTED_EDGE('',*,*,#155,.T.);
#228=ORIENTED_EDGE('',*,*,#160,.F.);
#229=ORIENTED_EDGE('',*,*,#153,.T.);
#230=ORIENTED_EDGE('',*,*,#144,.F.);
#231=ORIENTED_EDGE('',*,*,#149,.T.);
#232=ORIENTED_EDGE('',*,*,#163,.F.);
#233=ORIENTED_EDGE('',*,*,#139,.T.);
#234=ORIENTED_EDGE('',*,*,#137,.T.);
#235=ORIENTED_EDGE('',*,*,#140,.T.);
#236=PLANE('',#277);
#237=PLANE('',#278);
#238=PLANE('',#279);
#239=PLANE('',#290);
#240=PLANE('',#293);
#241=PLANE('',#297);
#242=PLANE('',#300);
#243=PLANE('',#301);
#244=PLANE('',#302);
#245=PLANE('',#304);
#246=PLANE('',#309);
#247=ADVANCED_FACE('',(#38),#236,.F.);
#248=ADVANCED_FACE('',(#39),#237,.F.);
#249=ADVANCED_FACE('',(#40,#24),#238,.F.);
#250=ADVANCED_FACE('',(#41),#22,.T.);
#251=ADVANCED_FACE('',(#42),#19,.T.);
#252=ADVANCED_FACE('',(#43),#20,.T.);
#253=ADVANCED_FACE('',(#44),#239,.T.);
#254=ADVANCED_FACE('',(#45),#240,.T.);
#255=ADVANCED_FACE('',(#46),#241,.T.);
#256=ADVANCED_FACE('',(#47),#242,.F.);
#257=ADVANCED_FACE('',(#48),#243,.F.);
#258=ADVANCED_FACE('',(#49),#244,.F.);
#259=ADVANCED_FACE('',(#50),#245,.F.);
#260=ADVANCED_FACE('',(#51),#21,.T.);
#261=ADVANCED_FACE('',(#52),#23,.T.);
#262=ADVANCED_FACE('',(#53),#246,.T.);
#263=CLOSED_SHELL('',(#247,#248,#249,#250,#251,#252,#253,#254,#255,#256,
#257,#258,#259,#260,#261,#262));
#264=DERIVED_UNIT_ELEMENT(#266,1.);
#265=DERIVED_UNIT_ELEMENT(#482,-3.);
#266=(
MASS_UNIT()
NAMED_UNIT(*)
SI_UNIT(.KILO.,.GRAM.)
);
#267=DERIVED_UNIT((#264,#265));
#268=MEASURE_REPRESENTATION_ITEM('density measure',
POSITIVE_RATIO_MEASURE(7850.),#267);
#269=PROPERTY_DEFINITION_REPRESENTATION(#274,#271);
#270=PROPERTY_DEFINITION_REPRESENTATION(#275,#272);
#271=REPRESENTATION('material name',(#273),#479);
#272=REPRESENTATION('density',(#268),#479);
#273=DESCRIPTIVE_REPRESENTATION_ITEM('Steel','Steel');
#274=PROPERTY_DEFINITION('material property','material name',#489);
#275=PROPERTY_DEFINITION('material property','density of part',#489);
#276=AXIS2_PLACEMENT_3D('placement',#393,#310,#311);
#277=AXIS2_PLACEMENT_3D('',#394,#312,#313);
#278=AXIS2_PLACEMENT_3D('',#405,#315,#316);
#279=AXIS2_PLACEMENT_3D('',#416,#318,#319);
#280=AXIS2_PLACEMENT_3D('',#418,#320,#321);
#281=AXIS2_PLACEMENT_3D('',#420,#322,#323);
#282=AXIS2_PLACEMENT_3D('',#421,#324,#325);
#283=AXIS2_PLACEMENT_3D('',#422,#326,#327);
#284=AXIS2_PLACEMENT_3D('',#424,#328,#329);
#285=AXIS2_PLACEMENT_3D('',#426,#331,#332);
#286=AXIS2_PLACEMENT_3D('',#427,#333,#334);
#287=AXIS2_PLACEMENT_3D('',#428,#335,#336);
#288=AXIS2_PLACEMENT_3D('',#429,#337,#338);
#289=AXIS2_PLACEMENT_3D('',#430,#339,#340);
#290=AXIS2_PLACEMENT_3D('',#431,#341,#342);
#291=AXIS2_PLACEMENT_3D('',#434,#343,#344);
#292=AXIS2_PLACEMENT_3D('',#438,#346,#347);
#293=AXIS2_PLACEMENT_3D('',#440,#349,#350);
#294=AXIS2_PLACEMENT_3D('',#442,#351,#352);
#295=AXIS2_PLACEMENT_3D('',#446,#354,#355);
#296=AXIS2_PLACEMENT_3D('',#447,#356,#357);
#297=AXIS2_PLACEMENT_3D('',#448,#358,#359);
#298=AXIS2_PLACEMENT_3D('',#450,#360,#361);
#299=AXIS2_PLACEMENT_3D('',#452,#362,#363);
#300=AXIS2_PLACEMENT_3D('',#454,#365,#366);
#301=AXIS2_PLACEMENT_3D('',#460,#370,#371);
#302=AXIS2_PLACEMENT_3D('',#466,#375,#376);
#303=AXIS2_PLACEMENT_3D('',#467,#377,#378);
#304=AXIS2_PLACEMENT_3D('',#468,#379,#380);
#305=AXIS2_PLACEMENT_3D('',#469,#381,#382);
#306=AXIS2_PLACEMENT_3D('',#470,#383,#384);
#307=AXIS2_PLACEMENT_3D('',#473,#386,#387);
#308=AXIS2_PLACEMENT_3D('',#474,#388,#389);
#309=AXIS2_PLACEMENT_3D('',#476,#391,#392);
#310=DIRECTION('axis',(0.,0.,1.));
#311=DIRECTION('refdir',(1.,0.,0.));
#312=DIRECTION('center_axis',(0.,-1.,7.95080213356681E-15));
#313=DIRECTION('ref_axis',(0.,-7.95080213356681E-15,-1.));
#314=DIRECTION('',(1.,0.,0.));
#315=DIRECTION('center_axis',(0.,1.,0.));
#316=DIRECTION('ref_axis',(0.,0.,1.));
#317=DIRECTION('',(-1.,0.,0.));
#318=DIRECTION('center_axis',(1.,0.,0.));
#319=DIRECTION('ref_axis',(0.,0.,-1.));
#320=DIRECTION('center_axis',(1.,0.,0.));
#321=DIRECTION('ref_axis',(0.,0.,-1.));
#322=DIRECTION('center_axis',(-1.,0.,0.));
#323=DIRECTION('ref_axis',(0.,0.,1.));
#324=DIRECTION('center_axis',(-1.,0.,0.));
#325=DIRECTION('ref_axis',(0.,0.,1.));
#326=DIRECTION('center_axis',(1.,0.,0.));
#327=DIRECTION('ref_axis',(0.,0.,1.));
#328=DIRECTION('center_axis',(-1.,0.,0.));
#329=DIRECTION('ref_axis',(0.,0.,1.));
#330=DIRECTION('',(1.,0.,0.));
#331=DIRECTION('center_axis',(-1.,0.,0.));
#332=DIRECTION('ref_axis',(0.,0.,1.));
#333=DIRECTION('center_axis',(1.,0.,0.));
#334=DIRECTION('ref_axis',(0.,0.,1.));
#335=DIRECTION('center_axis',(-1.,0.,0.));
#336=DIRECTION('ref_axis',(0.,0.,1.));
#337=DIRECTION('center_axis',(-1.,0.,0.));
#338=DIRECTION('ref_axis',(0.,2.0301221021717E-15,1.));
#339=DIRECTION('center_axis',(-1.,0.,0.));
#340=DIRECTION('ref_axis',(0.,0.,1.));
#341=DIRECTION('center_axis',(0.707106781186548,0.707106781186548,0.));
#342=DIRECTION('ref_axis',(0.,0.,-1.));
#343=DIRECTION('center_axis',(0.707106781186548,0.707106781186548,0.));
#344=DIRECTION('ref_axis',(0.707106781186547,-0.707106781186548,0.));
#345=DIRECTION('',(0.,0.,1.));
#346=DIRECTION('center_axis',(0.707106781186548,0.707106781186548,0.));
#347=DIRECTION('ref_axis',(0.707106781186547,-0.707106781186548,0.));
#348=DIRECTION('',(0.,0.,-1.));
#349=DIRECTION('center_axis',(1.,0.,0.));
#350=DIRECTION('ref_axis',(0.,0.,-1.));
#351=DIRECTION('center_axis',(-1.,0.,0.));
#352=DIRECTION('ref_axis',(0.,0.,-1.));
#353=DIRECTION('',(0.,0.,-1.));
#354=DIRECTION('center_axis',(-1.,0.,0.));
#355=DIRECTION('ref_axis',(0.,0.,-1.));
#356=DIRECTION('center_axis',(-1.,0.,0.));
#357=DIRECTION('ref_axis',(0.,0.,-1.));
#358=DIRECTION('center_axis',(0.707106781186548,-0.707106781186548,0.));
#359=DIRECTION('ref_axis',(0.,0.,-1.));
#360=DIRECTION('center_axis',(0.707106781186548,-0.707106781186548,0.));
#361=DIRECTION('ref_axis',(-0.707106781186547,-0.707106781186548,0.));
#362=DIRECTION('center_axis',(0.707106781186548,-0.707106781186548,0.));
#363=DIRECTION('ref_axis',(-0.707106781186547,-0.707106781186548,0.));
#364=DIRECTION('',(0.,0.,1.));
#365=DIRECTION('center_axis',(0.,-1.,0.));
#366=DIRECTION('ref_axis',(0.,0.,1.));
#367=DIRECTION('',(-1.,0.,0.));
#368=DIRECTION('',(0.,0.,1.));
#369=DIRECTION('',(1.,0.,0.));
#370=DIRECTION('center_axis',(0.,1.,0.));
#371=DIRECTION('ref_axis',(0.,0.,-1.));
#372=DIRECTION('',(-1.,0.,0.));
#373=DIRECTION('',(0.,0.,-1.));
#374=DIRECTION('',(1.,0.,0.));
#375=DIRECTION('center_axis',(-1.,0.,0.));
#376=DIRECTION('ref_axis',(0.,0.,1.));
#377=DIRECTION('center_axis',(1.,0.,0.));
#378=DIRECTION('ref_axis',(0.,0.,-1.));
#379=DIRECTION('center_axis',(-1.,0.,0.));
#380=DIRECTION('ref_axis',(0.,0.,1.));
#381=DIRECTION('center_axis',(1.,0.,0.));
#382=DIRECTION('ref_axis',(0.,0.,-1.));
#383=DIRECTION('center_axis',(1.,0.,0.));
#384=DIRECTION('ref_axis',(0.,0.,-1.));
#385=DIRECTION('',(0.707106781186548,8.65956056235493E-17,0.707106781186548));
#386=DIRECTION('center_axis',(-1.,0.,0.));
#387=DIRECTION('ref_axis',(0.,0.,-1.));
#388=DIRECTION('center_axis',(-1.,0.,0.));
#389=DIRECTION('ref_axis',(0.,0.,-1.));
#390=DIRECTION('',(1.,0.,0.));
#391=DIRECTION('center_axis',(-1.,0.,0.));
#392=DIRECTION('ref_axis',(0.,0.,1.));
#393=CARTESIAN_POINT('',(0.,0.,0.));
#394=CARTESIAN_POINT('Origin',(92.5,-55.9532942292249,-151.304531570055));
#395=CARTESIAN_POINT('',(94.7345379861141,-55.9532942292249,-151.304531570055));
#396=CARTESIAN_POINT('',(92.5,-55.9532942292249,-153.538717265484));
#397=CARTESIAN_POINT('Ctrl Pts',(94.7345379861141,-55.9532942292249,-151.304531570055));
#398=CARTESIAN_POINT('Ctrl Pts',(93.1846333409456,-55.9532942292249,-152.72628610351));
#399=CARTESIAN_POINT('Ctrl Pts',(92.5,-55.9532942292249,-153.538717265484));
#400=CARTESIAN_POINT('',(96.9690759722283,-55.9532942292249,-153.538717265484));
#401=CARTESIAN_POINT('Ctrl Pts',(96.9690759722283,-55.9532942292249,-153.538717265484));
#402=CARTESIAN_POINT('Ctrl Pts',(96.2844426312827,-55.9532942292249,-152.72628610351));
#403=CARTESIAN_POINT('Ctrl Pts',(94.7345379861141,-55.9532942292249,-151.304531570055));
#404=CARTESIAN_POINT('',(97.5,-55.9532942292249,-153.538717265484));
#405=CARTESIAN_POINT('Origin',(92.5,-59.4888281351576,-153.538717265484));
#406=CARTESIAN_POINT('',(92.5,-59.4888281351576,-153.538717265484));
#407=CARTESIAN_POINT('',(94.7345379861141,-59.4888281351576,-151.304531570055));
#408=CARTESIAN_POINT('Ctrl Pts',(92.5,-59.4888281351576,-153.538717265484));
#409=CARTESIAN_POINT('Ctrl Pts',(93.1846333409458,-59.4888281351576,-152.72628610351));
#410=CARTESIAN_POINT('Ctrl Pts',(94.7345379861141,-59.4888281351576,-151.304531570055));
#411=CARTESIAN_POINT('',(96.9690759722283,-59.4888281351576,-153.538717265484));
#412=CARTESIAN_POINT('',(97.5,-59.4888281351576,-153.538717265484));
#413=CARTESIAN_POINT('Ctrl Pts',(94.7345379861141,-59.4888281351576,-151.304531570055));
#414=CARTESIAN_POINT('Ctrl Pts',(96.2844426312825,-59.4888281351576,-152.72628610351));
#415=CARTESIAN_POINT('Ctrl Pts',(96.9690759722283,-59.4888281351576,-153.538717265484));
#416=CARTESIAN_POINT('Origin',(100.1,-57.7210611821913,-155.30648421845));
#417=CARTESIAN_POINT('',(100.1,-57.7210611821913,-152.43148421845));
#418=CARTESIAN_POINT('Origin',(100.1,-57.7210611821913,-155.30648421845));
#419=CARTESIAN_POINT('',(100.1,-57.7210611821913,-157.80648421845));
#420=CARTESIAN_POINT('Origin',(100.1,-57.7210611821913,-155.30648421845));
#421=CARTESIAN_POINT('Origin',(97.5,-57.7210611821913,-155.30648421845));
#422=CARTESIAN_POINT('Origin',(96.9690759722283,-57.7210611821913,-155.30648421845));
#423=CARTESIAN_POINT('',(92.5,-57.7210611821913,-157.80648421845));
#424=CARTESIAN_POINT('Origin',(92.5,-57.7210611821913,-155.30648421845));
#425=CARTESIAN_POINT('',(97.5,-57.7210611821913,-157.80648421845));
#426=CARTESIAN_POINT('Origin',(92.5,-57.7210611821913,-155.30648421845));
#427=CARTESIAN_POINT('Origin',(93.6172689930571,-57.7210611821913,-155.30648421845));
#428=CARTESIAN_POINT('Origin',(92.5,-57.7210611821913,-155.30648421845));
#429=CARTESIAN_POINT('Origin',(94.7345379861141,-57.7210611821913,-155.30648421845));
#430=CARTESIAN_POINT('Origin',(95.8518069791712,-57.7210611821913,-155.30648421845));
#431=CARTESIAN_POINT('Origin',(103.875,-58.4725611821913,-157.449634513577));
#432=CARTESIAN_POINT('',(104.,-58.5975611821913,-159.592784808703));
#433=CARTESIAN_POINT('',(103.75,-58.3475611821913,-159.636394465788));
#434=CARTESIAN_POINT('Origin',(103.1235,-57.7210611821913,-155.30648421845));
#435=CARTESIAN_POINT('',(103.75,-58.3475611821913,-150.976573971113));
#436=CARTESIAN_POINT('',(103.75,-58.3475611821913,-157.449634513577));
#437=CARTESIAN_POINT('',(104.,-58.5975611821913,-151.020183628198));
#438=CARTESIAN_POINT('Origin',(103.1235,-57.7210611821913,-155.30648421845));
#439=CARTESIAN_POINT('',(104.,-58.5975611821913,-157.449634513577));
#440=CARTESIAN_POINT('Origin',(103.75,-57.7210611821913,-155.30648421845));
#441=CARTESIAN_POINT('',(103.75,-57.0945611821913,-159.636394465788));
#442=CARTESIAN_POINT('Origin',(103.75,-57.7210611821913,-155.30648421845));
#443=CARTESIAN_POINT('',(103.75,-57.0945611821913,-150.976573971113));
#444=CARTESIAN_POINT('',(103.75,-57.0945611821913,-153.163333923324));
#445=CARTESIAN_POINT('',(103.75,-57.7210611821913,-150.93148421845));
#446=CARTESIAN_POINT('Origin',(103.75,-57.7210611821913,-155.30648421845));
#447=CARTESIAN_POINT('Origin',(103.75,-57.7210611821913,-155.30648421845));
#448=CARTESIAN_POINT('Origin',(103.875,-56.9695611821913,-153.163333923324));
#449=CARTESIAN_POINT('',(104.,-56.8445611821913,-151.020183628198));
#450=CARTESIAN_POINT('Origin',(103.1235,-57.7210611821913,-155.30648421845));
#451=CARTESIAN_POINT('',(104.,-56.8445611821913,-159.592784808703));
#452=CARTESIAN_POINT('Origin',(103.1235,-57.7210611821913,-155.30648421845));
#453=CARTESIAN_POINT('',(104.,-56.8445611821913,-153.163333923324));
#454=CARTESIAN_POINT('Origin',(106.5,-58.5975611821913,-159.592784808703));
#455=CARTESIAN_POINT('',(106.5,-58.5975611821913,-151.020183628198));
#456=CARTESIAN_POINT('',(106.5,-58.5975611821913,-151.020183628198));
#457=CARTESIAN_POINT('',(106.5,-58.5975611821913,-159.592784808703));
#458=CARTESIAN_POINT('',(106.5,-58.5975611821913,-157.449634513577));
#459=CARTESIAN_POINT('',(106.5,-58.5975611821913,-159.592784808703));
#460=CARTESIAN_POINT('Origin',(106.5,-56.8445611821913,-151.020183628198));
#461=CARTESIAN_POINT('',(106.5,-56.8445611821913,-159.592784808703));
#462=CARTESIAN_POINT('',(106.5,-56.8445611821913,-159.592784808703));
#463=CARTESIAN_POINT('',(106.5,-56.8445611821913,-151.020183628198));
#464=CARTESIAN_POINT('',(106.5,-56.8445611821913,-153.163333923324));
#465=CARTESIAN_POINT('',(106.5,-56.8445611821913,-151.020183628198));
#466=CARTESIAN_POINT('Origin',(106.5,-57.7210611821913,-155.30648421845));
#467=CARTESIAN_POINT('Origin',(106.5,-57.7210611821913,-155.30648421845));
#468=CARTESIAN_POINT('Origin',(106.5,-57.7210611821913,-155.30648421845));
#469=CARTESIAN_POINT('Origin',(106.5,-57.7210611821913,-155.30648421845));
#470=CARTESIAN_POINT('Origin',(100.85,-57.7210611821913,-155.30648421845));
#471=CARTESIAN_POINT('',(101.6,-57.7210611821913,-150.93148421845));
#472=CARTESIAN_POINT('',(100.85,-57.7210611821913,-151.68148421845));
#473=CARTESIAN_POINT('Origin',(101.6,-57.7210611821913,-155.30648421845));
#474=CARTESIAN_POINT('Origin',(106.5,-57.7210611821913,-155.30648421845));
#475=CARTESIAN_POINT('',(106.5,-57.7210611821913,-150.93148421845));
#476=CARTESIAN_POINT('Origin',(92.5,-57.7210611821913,-155.30648421845));
#477=UNCERTAINTY_MEASURE_WITH_UNIT(LENGTH_MEASURE(0.01),#481,
'DISTANCE_ACCURACY_VALUE',
'Maximum model space distance between geometric entities at asserted c
onnectivities');
#478=UNCERTAINTY_MEASURE_WITH_UNIT(LENGTH_MEASURE(0.01),#481,
'DISTANCE_ACCURACY_VALUE',
'Maximum model space distance between geometric entities at asserted c
onnectivities');
#479=(
GEOMETRIC_REPRESENTATION_CONTEXT(3)
GLOBAL_UNCERTAINTY_ASSIGNED_CONTEXT((#477))
GLOBAL_UNIT_ASSIGNED_CONTEXT((#481,#483,#484))
REPRESENTATION_CONTEXT('','3D')
);
#480=(
GEOMETRIC_REPRESENTATION_CONTEXT(3)
GLOBAL_UNCERTAINTY_ASSIGNED_CONTEXT((#478))
GLOBAL_UNIT_ASSIGNED_CONTEXT((#481,#483,#484))
REPRESENTATION_CONTEXT('','3D')
);
#481=(
LENGTH_UNIT()
NAMED_UNIT(*)
SI_UNIT(.MILLI.,.METRE.)
);
#482=(
LENGTH_UNIT()
NAMED_UNIT(*)
SI_UNIT($,.METRE.)
);
#483=(
NAMED_UNIT(*)
PLANE_ANGLE_UNIT()
SI_UNIT($,.RADIAN.)
);
#484=(
NAMED_UNIT(*)
SI_UNIT($,.STERADIAN.)
SOLID_ANGLE_UNIT()
);
#485=SHAPE_DEFINITION_REPRESENTATION(#486,#487);
#486=PRODUCT_DEFINITION_SHAPE('',$,#489);
#487=SHAPE_REPRESENTATION('',(#276),#479);
#488=PRODUCT_DEFINITION_CONTEXT('part definition',#493,'design');
#489=PRODUCT_DEFINITION('Pin Rear','Pin Rear',#490,#488);
#490=PRODUCT_DEFINITION_FORMATION('',$,#495);
#491=PRODUCT_RELATED_PRODUCT_CATEGORY('Pin Rear','Pin Rear',(#495));
#492=APPLICATION_PROTOCOL_DEFINITION('international standard',
'automotive_design',2009,#493);
#493=APPLICATION_CONTEXT(
'Core Data for Automotive Mechanical Design Process');
#494=PRODUCT_CONTEXT('part definition',#493,'mechanical');
#495=PRODUCT('Pin Rear','Pin Rear',$,(#494));
#496=PRESENTATION_STYLE_ASSIGNMENT((#498));
#497=PRESENTATION_STYLE_ASSIGNMENT((#499));
#498=SURFACE_STYLE_USAGE(.BOTH.,#500);
#499=SURFACE_STYLE_USAGE(.BOTH.,#501);
#500=SURFACE_SIDE_STYLE('',(#502));
#501=SURFACE_SIDE_STYLE('',(#503));
#502=SURFACE_STYLE_FILL_AREA(#504);
#503=SURFACE_STYLE_FILL_AREA(#505);
#504=FILL_AREA_STYLE('Steel - Satin',(#506));
#505=FILL_AREA_STYLE('Plastic - Translucent Glossy (Green)',(#507));
#506=FILL_AREA_STYLE_COLOUR('Steel - Satin',#508);
#507=FILL_AREA_STYLE_COLOUR('Plastic - Translucent Glossy (Green)',#509);
#508=COLOUR_RGB('Steel - Satin',0.627450980392157,0.627450980392157,0.627450980392157);
#509=COLOUR_RGB('Plastic - Translucent Glossy (Green)',0.266666666666667,
0.588235294117647,0.282352941176471);
ENDSEC;
END-ISO-10303-21;
